<?xml version="1.0" encoding="UTF-8"?>
<pmd-cpd>
  <duplication lines="11" tokens="23">
    <file path="/var/www/zf2napratica/module/Application/src/Application/Model/Comment.php" line="150"/>
    <file path="/var/www/zf2napratica/module/Application/src/Application/Model/Post.php" line="94"/>
    <codefragment>                'required' =&gt; false,
                'filters'  =&gt; array(
                    array('name' =&gt; 'StripTags'),
                    array('name' =&gt; 'StringTrim'),
                ),
            )));

            $this-&gt;inputFilter = $inputFilter;
        }

        return $this-&gt;inputFilter;
</codefragment>
  </duplication>
  <duplication lines="34" tokens="56">
    <file path="/var/www/zf2napratica/module/Application/tests/Bootstrap.php" line="19"/>
    <file path="/var/www/zf2napratica/module/Admin/tests/Bootstrap.php" line="19"/>
    <codefragment>    static public function go()
    {
        //@todo verificar se não existe uma constante indicando o diretório raiz do projeto
        chdir(dirname(__DIR__ . '/../../../..'));

        include 'init_autoloader.php';

        define('ZF2_PATH', realpath('vendor/zendframework/zendframework/library'));

        $path = array(
            ZF2_PATH,
            get_include_path(),
        );
        set_include_path(implode(PATH_SEPARATOR, $path));

        require_once  'Zend/Loader/AutoloaderFactory.php';
        require_once  'Zend/Loader/StandardAutoloader.php';

        // setup autoloader
        AutoloaderFactory::factory(
            array(
                'Zend\Loader\StandardAutoloader' =&gt; array(
                    StandardAutoloader::AUTOREGISTER_ZF =&gt; true,
                    StandardAutoloader::ACT_AS_FALLBACK =&gt; false,
                    StandardAutoloader::LOAD_NS =&gt; array(
                        'Core' =&gt; getcwd() . '/module/Core/src/Core'
                    )
                )
            )
        );
    }
}

Bootstrap::go();
</codefragment>
  </duplication>
  <duplication lines="11" tokens="38">
    <file path="/var/www/zf2napratica/module/Admin/tests/src/Admin/Service/AuthTest.php" line="139"/>
    <file path="/var/www/zf2napratica/module/Admin/tests/src/Admin/Model/UserTest.php" line="126"/>
    <codefragment>    private function addUser()
    {
        $user = new User();
        $user-&gt;username = 'steve';
        $user-&gt;password = md5('apple');
        $user-&gt;name = 'Steve &lt;b&gt;Jobs&lt;/b&gt;';
        $user-&gt;valid = 1;
        $user-&gt;role = 'admin';

        $saved = $this-&gt;getTable('Admin\Model\User')-&gt;save($user);
        return $saved;
</codefragment>
  </duplication>
</pmd-cpd>
